{
  "images" : [
    {
      "idiom" : "universal",
      "scale" : "1x",
      "filename" : "个税.png"
    },
    {
      "idiom" : "universal",
      "scale" : "2x",
      "filename" : "个税@2x.png"
    },
    {
      "idiom" : "universal",
      "scale" : "3x",
      "filename" : "个税@3x.png"
    }
  ],
  "info" : {
    "version" : 1,
    "author" : "xcode"
  }
}